C:\Users\Tanish\Documents\GitHub\Software_Quality\SOFE_3980_Final_Project_D1\finalProject\src\main\java\com\ontariotechu\sofe3980U\Flight_search.java
C:\Users\Tanish\Documents\GitHub\Software_Quality\SOFE_3980_Final_Project_D1\finalProject\src\main\java\com\ontariotechu\sofe3980U\One_Way.java
C:\Users\Tanish\Documents\GitHub\Software_Quality\SOFE_3980_Final_Project_D1\finalProject\src\main\java\com\ontariotechu\sofe3980U\Round_Trip.java
C:\Users\Tanish\Documents\GitHub\Software_Quality\SOFE_3980_Final_Project_D1\finalProject\src\main\java\com\ontariotechu\sofe3980U\App.java
C:\Users\Tanish\Documents\GitHub\Software_Quality\SOFE_3980_Final_Project_D1\finalProject\src\main\java\com\ontariotechu\sofe3980U\Ticket_Generator.java
C:\Users\Tanish\Documents\GitHub\Software_Quality\SOFE_3980_Final_Project_D1\finalProject\src\main\java\com\ontariotechu\sofe3980U\Flight_Book.java
